{
	"info": {
		"_postman_id": "392ec822-1297-4fd0-b1d7-946cfdfa1688",
		"name": "Harmonized Committee and Working Documents",
		"schema": "https://schema.getpostman.com/json/collection/v2.1.0/collection.json",
		"_exporter_id": "12029636"
	},
	"item": [
		{
			"name": "documents",
			"item": [
				{
					"name": "List and filter documents by different query parameters ordered by date desc",
					"event": [
						{
							"listen": "test",
							"script": {
								"exec": [
									"pm.test(\"Status code is 200\", function () {",
									"    pm.response.to.have.status(200);",
									"});",
									"",
									"var jsonData;",
									"if (pm.request.headers.get(\"Accept\") == \"application/xml\"){",
									"    jsonData = xml2Json(pm.response.text()).documentsRoot;",
									"} else {",
									"    jsonData = pm.response.json();",
									"}",
									"",
									"if (pm.response.code === 200) {",
									"    if (pm.response.headers.get(\"Link\")){",
									"        console.log(\"Response Header Link is present. Pagination is required to get all searched documents: \\n\" + pm.response.headers.get(\"Link\") );",
									"    } ",
									"    if (jsonData != null){",
									"        console.log(\"Documents count for this page: \"+jsonData.document.length);",
									"    }",
									"}"
								],
								"type": "text/javascript"
							}
						}
					],
					"request": {
						"method": "GET",
						"header": [],
						"url": {
							"raw": "{{baseUrl}}/documents?lastChangeTimestampFrom=2w",
							"host": [
								"{{baseUrl}}"
							],
							"path": [
								"documents"
							],
							"query": [
								{
									"key": "lastChangeTimestampFrom",
									"value": "2w"
								}
							]
						}
					},
					"response": []
				},
				{
					"name": "Access a specific document by its urn",
					"event": [
						{
							"listen": "test",
							"script": {
								"exec": [
									"let documentUrn = pm.environment.get(\"documentUrn\");",
									"",
									"pm.test(\"Status code is 200\", function () {",
									"    pm.response.to.have.status(200);",
									"});",
									"",
									"var releaseItem;",
									"if (pm.request.headers.get(\"Accept\") == \"application/xml\"){",
									"    releaseItem = xml2Json(pm.response.text()).documentsRoot.document.releaseItems.releaseItem;",
									"} else {",
									"    releaseItem = pm.response.json().document[0].releaseItems[0];",
									"}",
									"console.log(releaseItem);",
									"",
									"",
									"if (pm.response.code === 200) {",
									"    console.log(\"Document: [\" + documentUrn + \"] - mime type: [\" + releaseItem.contentRef.mimeType + \"] - Download url: [\" + releaseItem.contentRef.url+\"]\");",
									"    pm.environment.set(\"document_downloadUrl\", releaseItem.contentRef.url);",
									"    postman.setNextRequest(\"Download document from urn\");",
									"}"
								],
								"type": "text/javascript"
							}
						}
					],
					"request": {
						"method": "GET",
						"header": [
							{
								"key": "Accept",
								"value": "application/xml",
								"type": "text",
								"disabled": true
							}
						],
						"url": {
							"raw": "{{baseUrl}}/documents/:urn",
							"host": [
								"{{baseUrl}}"
							],
							"path": [
								"documents",
								":urn"
							],
							"variable": [
								{
									"key": "urn",
									"value": "{{documentUrn}}",
									"description": "(Required) urn - Please fill with the document urn you are interested in or use {{documentUrn}} variable for testing purpose."
								}
							]
						}
					},
					"response": []
				},
				{
					"name": "Download document from urn (Automatically set from Access a specific document by its urn request)",
					"event": [
						{
							"listen": "prerequest",
							"script": {
								"exec": [
									"pm.test(\"Status code is 200\", function () {\r",
									"    pm.response.to.have.status(200);\r",
									"});\r",
									""
								],
								"type": "text/javascript"
							}
						}
					],
					"request": {
						"method": "GET",
						"header": [],
						"url": {
							"raw": "{{document_downloadUrl}}",
							"host": [
								"{{document_downloadUrl}}"
							]
						}
					},
					"response": []
				},
				{
					"name": "Search for deleted documents within date intervals",
					"request": {
						"method": "GET",
						"header": [],
						"url": {
							"raw": "{{baseUrl}}/documents/search/deleted?deletedTimestampFrom=2m",
							"host": [
								"{{baseUrl}}"
							],
							"path": [
								"documents",
								"search",
								"deleted"
							],
							"query": [
								{
									"key": "deletedTimestampFrom",
									"value": "2m",
									"description": "lower bound of interval to search for deleted documents"
								},
								{
									"key": "deletedTimestampTo",
									"value": "<date with timezone or relative time to now (eg. 2h, 3d, 1w, 3m)>",
									"description": "upper bound of interval to search for deleted documents",
									"disabled": true
								},
								{
									"key": "page",
									"value": "0",
									"description": "pagination page number (e.g. 5)",
									"disabled": true
								},
								{
									"key": "size",
									"value": "10",
									"description": "pagination page size = number of items to return (e.g. 10)",
									"disabled": true
								}
							]
						}
					},
					"response": []
				}
			]
		}
	],
	"auth": {
		"type": "oauth2",
		"oauth2": [
			{
				"key": "challengeAlgorithm",
				"value": "S256",
				"type": "string"
			},
			{
				"key": "grant_type",
				"value": "client_credentials",
				"type": "string"
			},
			{
				"key": "clientSecret",
				"value": "{{api_secret}}",
				"type": "string"
			},
			{
				"key": "clientId",
				"value": "{{api_key}}",
				"type": "string"
			},
			{
				"key": "addTokenTo",
				"value": "header",
				"type": "string"
			},
			{
				"key": "client_authentication",
				"value": "header",
				"type": "string"
			},
			{
				"key": "accessTokenUrl",
				"value": "{{as}}/client_credential/accesstoken?grant_type=client_credentials",
				"type": "string"
			}
		]
	},
	"event": [
		{
			"listen": "prerequest",
			"script": {
				"type": "text/javascript",
				"exec": [
					"// Refresh the OAuth token if necessary",
					"var tokenDate = new Date(2010,1,1);",
					"var tokenTimestamp = pm.environment.get(\"OAuth_Timestamp\");",
					"if(tokenTimestamp){",
					"  tokenDate = Date.parse(tokenTimestamp);",
					"}",
					"var expiresInTime = pm.environment.get(\"OAuth_ExpiresInTime\");",
					"if(!expiresInTime){",
					"    expiresInTime = 300000; // Set default expiration time to 5 minutes",
					"}",
					"if((new Date() - tokenDate) >= expiresInTime) ",
					"{",
					"   console.log(\"Start authentication...\")",
					"   pm.sendRequest({",
					"      url:  pm.variables.get(\"as\")+\"/client_credential/accesstoken?grant_type=client_credentials\", ",
					"      method: 'GET',",
					"      header: {",
					"        'Accept': 'application/json',",
					"        'Content-Type': 'application/x-www-form-urlencoded',",
					"        'Authorization': 'Basic: ' + btoa(pm.variables.get(\"api_key\") + \":\" + pm.variables.get(\"api_secret\"))",
					"      }",
					"  }, function (err, res) {",
					"        console.log(\"AccessToken = : \"+res.json().access_token);",
					"        pm.environment.set(\"OAuth_Token\", res.json().access_token);",
					"        pm.environment.set(\"OAuth_Timestamp\", new Date());",
					"        ",
					"        // Set the ExpiresInTime variable to the time given in the response if it exists",
					"        if(res.json().expires_in){",
					"            expiresInTime = res.json().expires_in * 1000;",
					"        }",
					"        pm.environment.set(\"OAuth_ExpiresInTime\", expiresInTime);",
					"  });",
					"}"
				]
			}
		},
		{
			"listen": "test",
			"script": {
				"type": "text/javascript",
				"exec": [
					""
				]
			}
		}
	]
}